<?xml version="1.0" encoding="UTF-8" standalone="no"?>
<!-- Created with Inkscape (http://www.inkscape.org/) -->

<svg
   width="100mm"
   height="100mm"
   viewBox="0 0 100 100"
   version="1.1"
   id="svg7311"
   xmlns="http://www.w3.org/2000/svg"
   xmlns:svg="http://www.w3.org/2000/svg">
  <defs
     id="defs7308" />
  <path
     id="rect922-6"
     style="fill:#000000;stroke:none;stroke-width:1.73483;stroke-linecap:round;paint-order:stroke fill markers"
     d="m 15.924473,21.638923 a 24.095085,24.095085 0 0 0 0,34.075359 24.095085,24.095085 0 0 0 0.191022,0.177143 c 0.0133,0.02091 0.02852,0.0423 0.04706,0.06079 L 32.962297,72.751957 47.954066,87.74373 c 1.133785,1.133785 2.959766,1.132056 4.093556,-0.0017 L 67.037653,72.752008 83.837395,55.952266 c 0.01854,-0.01854 0.03374,-0.03992 0.04706,-0.0608 a 24.09508,24.09508 0 0 0 0.191069,-0.177143 24.09508,24.09508 0 0 0 0,-34.075359 24.09508,24.09508 0 0 0 -34.07536,0 24.095085,24.095085 0 0 0 -34.075359,0 z" />
</svg>
