<?xml version="1.0" encoding="UTF-8" standalone="no"?>
<!-- Created with Inkscape (http://www.inkscape.org/) -->

<svg
   width="100mm"
   height="100mm"
   viewBox="0 0 100 100"
   version="1.1"
   id="svg7311"
   sodipodi:docname="incremental.svg"
   inkscape:version="1.2.2 (b0a8486541, 2022-12-01)"
   xmlns:inkscape="http://www.inkscape.org/namespaces/inkscape"
   xmlns:sodipodi="http://sodipodi.sourceforge.net/DTD/sodipodi-0.dtd"
   xmlns="http://www.w3.org/2000/svg"
   xmlns:svg="http://www.w3.org/2000/svg">
  <sodipodi:namedview
     id="namedview7313"
     pagecolor="#ffffff"
     bordercolor="#666666"
     borderopacity="1.0"
     inkscape:showpageshadow="2"
     inkscape:pageopacity="0.0"
     inkscape:pagecheckerboard="0"
     inkscape:deskcolor="#d1d1d1"
     inkscape:document-units="mm"
     showgrid="false"
     showguides="true"
     inkscape:zoom="1.2485177"
     inkscape:cx="36.042742"
     inkscape:cy="213.05265"
     inkscape:window-width="1920"
     inkscape:window-height="1177"
     inkscape:window-x="0"
     inkscape:window-y="0"
     inkscape:window-maximized="0"
     inkscape:current-layer="layer1">
    <sodipodi:guide
       position="50,99.999999"
       orientation="1,0"
       id="guide9355"
       inkscape:locked="false" />
    <sodipodi:guide
       position="0,50"
       orientation="0,-1"
       id="guide9357"
       inkscape:locked="false" />
    <sodipodi:guide
       position="50,94.157462"
       orientation="0,-1"
       id="guide28430"
       inkscape:locked="false" />
    <sodipodi:guide
       position="186.06398,65.881205"
       orientation="1,0"
       id="guide28432"
       inkscape:locked="false" />
    <sodipodi:guide
       position="50,8.0056147"
       orientation="0,-1"
       id="guide28434"
       inkscape:locked="false" />
    <sodipodi:guide
       position="12.104171,37.580037"
       orientation="1,0"
       id="guide28436"
       inkscape:locked="false" />
    <sodipodi:guide
       position="87.895923,37.872525"
       orientation="1,0"
       id="guide28438"
       inkscape:locked="false" />
  </sodipodi:namedview>
  <defs
     id="defs7308">
    <inkscape:path-effect
       effect="fillet_chamfer"
       id="path-effect28066"
       is_visible="true"
       lpeversion="1"
       nodesatellites_param="F,0,0,1,0,1.3229167,0,1 @ F,0,0,1,0,1.3229167,0,1 @ F,0,0,1,0,1.3229167,0,1 @ F,0,0,1,0,1.3229167,0,1"
       unit="px"
       method="auto"
       mode="F"
       radius="5"
       chamfer_steps="1"
       flexible="false"
       use_knot_distance="true"
       apply_no_radius="true"
       apply_with_radius="true"
       only_selected="false"
       hide_knots="false" />
    <inkscape:path-effect
       effect="fillet_chamfer"
       id="path-effect28322"
       is_visible="true"
       lpeversion="1"
       nodesatellites_param="F,0,0,1,0,1.8520833,0,1 @ F,0,0,1,0,1.8520833,0,1 @ F,0,0,1,0,1.8520833,0,1 @ F,0,0,1,0,1.8520833,0,1 @ F,0,0,1,0,1.8520833,0,1 @ F,0,0,1,0,1.8520833,0,1 @ F,0,0,1,0,1.8520833,0,1 @ F,0,0,1,0,1.8520833,0,1 @ F,0,0,1,0,1.8520833,0,1 @ F,0,0,1,0,1.8520833,0,1 @ F,0,0,1,0,1.8520833,0,1 @ F,0,0,1,0,1.8520833,0,1 @ F,0,0,1,0,1.8520833,0,1 @ F,0,0,1,0,1.8520833,0,1 @ F,0,0,1,0,1.8520833,0,1 @ F,0,0,1,0,1.8520833,0,1 @ F,0,0,1,0,1.8520833,0,1"
       unit="px"
       method="auto"
       mode="F"
       radius="7"
       chamfer_steps="1"
       flexible="false"
       use_knot_distance="true"
       apply_no_radius="true"
       apply_with_radius="true"
       only_selected="false"
       hide_knots="false" />
  </defs>
  <g
     inkscape:label="Layer 1"
     inkscape:groupmode="layer"
     id="layer1">
    <rect
       style="fill:#000000;fill-opacity:1;stroke:none;stroke-width:0.165868;stroke-linecap:round;stroke-dasharray:none;stroke-opacity:1;paint-order:stroke fill markers"
       id="rect36453"
       width="9.504323"
       height="35.598671"
       x="37.005699"
       y="-28.974186"
       transform="matrix(0.70972203,0.70448182,-0.70418223,0.71001928,0,0)" />
    <circle
       style="fill:#000000;fill-opacity:1;stroke:none;stroke-width:0.170323;stroke-linecap:round;stroke-dasharray:none;stroke-opacity:1;paint-order:stroke fill markers"
       id="path36467"
       cx="-6.4697132"
       cy="41.784874"
       r="4.7314973"
       transform="rotate(-45)" />
    <rect
       style="fill:#000000;fill-opacity:1;stroke:none;stroke-width:0.165868;stroke-linecap:round;stroke-dasharray:none;stroke-opacity:1;paint-order:stroke fill markers"
       id="rect36453-4"
       width="9.504323"
       height="35.598671"
       x="24.204397"
       y="41.745609"
       transform="matrix(0.70448182,-0.70972203,0.71001928,0.70418223,0,0)" />
    <rect
       style="fill:#000000;fill-opacity:1;stroke:none;stroke-width:0.195258;stroke-linecap:round;stroke-dasharray:none;stroke-opacity:1;paint-order:stroke fill markers"
       id="rect36453-4-6"
       width="9.4753294"
       height="49.482651"
       x="45.275757"
       y="9.1253815"
       transform="matrix(0.99998665,-0.00516633,0.00296026,0.99999562,0,0)" />
    <circle
       style="fill:#000000;fill-opacity:1;stroke:none;stroke-width:0.170323;stroke-linecap:round;stroke-dasharray:none;stroke-opacity:1;paint-order:stroke fill markers"
       id="path36467-7"
       cx="-77.236313"
       cy="29.275591"
       r="4.7314973"
       transform="rotate(-135)" />
    <path
       sodipodi:type="star"
       style="fill:#000000;fill-opacity:1;stroke:none;stroke-width:0.1;stroke-linecap:round;stroke-dasharray:none;stroke-opacity:1;paint-order:stroke fill markers"
       id="path36451"
       inkscape:flatsided="false"
       sodipodi:sides="5"
       sodipodi:cx="102.17095"
       sodipodi:cy="201.8277"
       sodipodi:r1="13.673592"
       sodipodi:r2="6.7712383"
       sodipodi:arg1="-1.5707965"
       sodipodi:arg2="-0.93770589"
       inkscape:rounded="0.01"
       inkscape:randomized="0"
       d="m 102.17095,188.15411 c 0.0914,4.3e-4 3.93219,8.16088 4.00613,8.2146 0.0735,0.0534 8.97058,1.1471 8.99823,1.23361 0.0278,0.0871 -6.54634,6.26159 -6.57459,6.34851 -0.0281,0.0864 1.6811,8.886 1.60737,8.93903 -0.0742,0.0534 -7.97806,-4.291 -8.06945,-4.291 -0.0908,0 -7.931599,4.34474 -8.004822,4.29101 -0.07368,-0.0541 1.615634,-8.91358 1.587392,-9.0005 -0.02807,-0.0864 -6.583095,-6.2008 -6.554617,-6.28704 0.02866,-0.0868 8.976571,-1.21789 9.050511,-1.27161 0.07348,-0.0534 3.863026,-8.17705 3.953846,-8.17661 z"
       inkscape:transform-center-y="-3.2322215"
       transform="matrix(2.2884403,0,0,2.2884403,-183.81212,-393.60499)" />
    <circle
       style="fill:#000000;fill-opacity:1;stroke:none;stroke-width:0.170323;stroke-linecap:round;stroke-dasharray:none;stroke-opacity:1;paint-order:stroke fill markers"
       id="path36469"
       cx="29.125477"
       cy="41.637989"
       r="4.7686505"
       transform="rotate(-45)" />
  </g>
</svg>
